<svg width="160" height="155" viewBox="0 0 160 155" fill="none" xmlns="http://www.w3.org/2000/svg">
<path d="M81.7944 81.0846L118.038 72.2899L128.883 50.2046L132.472 49.3764L99.7387 37.1901L68.2277 50.6779L69.6081 66.1376L46.3396 75.8787L43.4607 86.6453L31.6687 84.8312L44.8016 95.44L65.1516 85.1467L82.5043 83.4114C82.2677 82.6621 81.9916 81.8733 81.7944 81.0846Z" fill="#E94E1B"/>
<path d="M79.9803 0C35.8097 0 0 35.8097 0 79.9803L43.4607 86.6453L46.3397 75.8787L69.6081 66.1375L67.439 42.1592L79.9803 0Z" fill="#FFDD00"/>
<path d="M4.18038 142.135V151.6H3.43106V142.135H0.197144V141.425H7.4143V142.135H4.18038Z" fill="black"/>
<path d="M13.5272 148.169H8.04532C8.04532 148.997 8.32139 149.786 8.79465 150.338C9.18903 150.811 9.74116 151.087 10.5299 151.087C11.1609 151.087 11.7131 150.85 12.1074 150.456C12.3835 150.18 12.5807 149.864 12.6596 149.431H13.4089C13.2906 150.062 13.0145 150.535 12.6201 150.929C12.1074 151.442 11.3976 151.757 10.5694 151.757C9.54397 151.757 8.79465 151.324 8.28195 150.732C7.69038 150.062 7.37488 149.076 7.37488 148.011C7.37488 147.104 7.53263 146.197 8.08476 145.447C8.67633 144.619 9.50453 144.185 10.5299 144.185C12.4624 144.185 13.6061 145.842 13.6061 147.656C13.5272 147.853 13.5272 148.011 13.5272 148.169ZM10.451 144.895C8.9524 144.895 8.04532 146.078 8.04532 147.498H12.8173C12.7779 146.157 11.9102 144.895 10.451 144.895Z" fill="black"/>
<path d="M18.1809 151.757C17.2738 151.757 16.564 151.403 16.0513 150.929C15.3019 150.18 15.0259 149.233 15.0259 148.011C15.0259 146.788 15.3019 145.842 16.0513 145.092C16.564 144.58 17.2738 144.264 18.1809 144.264C19.6796 144.264 20.7838 145.25 20.9416 146.709H20.1923C20.0345 145.723 19.2457 144.974 18.1809 144.974C17.5105 144.974 16.9583 145.211 16.6034 145.605C15.9724 146.276 15.8146 147.143 15.8146 148.05C15.8146 148.957 15.9724 149.864 16.6034 150.535C16.9583 150.929 17.5105 151.126 18.1809 151.126C19.2852 151.126 20.0345 150.338 20.2317 149.391H20.981C20.7838 150.732 19.6796 151.757 18.1809 151.757Z" fill="black"/>
<path d="M27.8826 151.6V146.907C27.8826 145.645 27.3305 144.895 26.029 144.895C24.2543 144.895 23.6628 146.433 23.6628 148.011V151.6H22.9529V141.227H23.6628V145.723C24.0571 144.816 25.0825 144.225 26.1079 144.225C27.7643 144.225 28.6319 145.25 28.6319 146.867V151.6H27.8826Z" fill="black"/>
<path d="M36.2829 151.6V146.907C36.2829 145.645 35.7308 144.935 34.4293 144.935C32.6546 144.935 32.063 146.473 32.063 148.011V151.6H31.3531V144.422H31.9447L32.0236 145.723C32.418 144.816 33.4434 144.225 34.4688 144.225C36.1251 144.225 36.9928 145.25 36.9928 146.867V151.6H36.2829Z" fill="black"/>
<path d="M44.2888 150.929C43.7761 151.442 43.0662 151.797 42.1986 151.797C41.2915 151.797 40.6211 151.442 40.1084 150.929C39.3591 150.18 39.083 149.233 39.083 148.011C39.083 146.788 39.3591 145.842 40.1084 145.092C40.6211 144.58 41.331 144.225 42.1986 144.225C43.1057 144.225 43.7761 144.58 44.2888 145.092C45.0382 145.842 45.3142 146.788 45.3142 148.011C45.3142 149.233 45.0382 150.18 44.2888 150.929ZM43.7761 145.566C43.4212 145.171 42.8691 144.935 42.1986 144.935C41.5282 144.935 40.976 145.171 40.6211 145.566C39.9901 146.236 39.8323 147.064 39.8323 148.011C39.8323 148.957 39.9901 149.786 40.6211 150.456C40.976 150.85 41.5282 151.087 42.1986 151.087C42.8691 151.087 43.4212 150.85 43.7761 150.456C44.4071 149.786 44.5649 148.957 44.5649 148.011C44.5649 147.064 44.4071 146.236 43.7761 145.566Z" fill="black"/>
<path d="M48.9425 151.679C48.0354 151.679 47.5227 151.205 47.5227 150.14V141.188H48.2326V150.101C48.2326 150.574 48.3903 150.969 48.9819 150.969C49.258 150.969 49.4157 150.969 49.6129 150.929V151.56C49.4157 151.639 49.2185 151.679 48.9425 151.679Z" fill="black"/>
<path d="M56.0808 150.929C55.5681 151.442 54.8582 151.797 53.9906 151.797C53.0835 151.797 52.4131 151.442 51.9004 150.929C51.1511 150.18 50.875 149.233 50.875 148.011C50.875 146.788 51.1511 145.842 51.9004 145.092C52.4131 144.58 53.123 144.225 53.9906 144.225C54.8977 144.225 55.5681 144.58 56.0808 145.092C56.8301 145.842 57.1062 146.788 57.1062 148.011C57.1062 149.233 56.8301 150.18 56.0808 150.929ZM55.5681 145.566C55.2132 145.171 54.661 144.935 53.9906 144.935C53.3202 144.935 52.768 145.171 52.4131 145.566C51.7821 146.236 51.6243 147.064 51.6243 148.011C51.6243 148.957 51.7821 149.786 52.4131 150.456C52.768 150.85 53.3202 151.087 53.9906 151.087C54.661 151.087 55.2132 150.85 55.5681 150.456C56.1991 149.786 56.3569 148.957 56.3569 148.011C56.3569 147.064 56.1991 146.236 55.5681 145.566Z" fill="black"/>
<path d="M64.7572 154.005C64.1262 154.636 63.0613 154.873 61.9176 154.873C60.8134 154.873 59.8668 154.676 59.2358 154.045C58.9203 153.729 58.7231 153.296 58.7231 152.743C58.7231 152.073 59.1175 151.363 59.788 151.048C59.2753 150.89 58.8809 150.377 58.8809 149.864C58.8809 149.233 59.1964 148.8 59.7485 148.484C59.3147 148.05 59.0386 147.459 59.0386 146.709C59.0386 145.171 60.2218 144.185 61.7204 144.185C62.3514 144.185 62.943 144.343 63.4163 144.659C63.6135 144.028 64.205 143.673 64.8755 143.673C64.9544 143.673 65.0727 143.712 65.1515 143.712V144.343C65.0727 144.343 64.9544 144.304 64.8755 144.304C64.3628 144.304 63.9684 144.58 63.8895 145.092C64.2445 145.526 64.4811 146.039 64.4811 146.709C64.4811 148.247 63.2585 149.194 61.7599 149.194C61.2472 149.194 60.7345 149.076 60.3401 148.878C59.9852 149.036 59.6302 149.312 59.6302 149.786C59.6302 150.14 59.8274 150.338 60.1429 150.456C60.419 150.574 60.8134 150.574 61.0894 150.574H62.6669C63.574 150.574 64.3233 150.811 64.7966 151.284C65.1515 151.639 65.3882 152.034 65.3882 152.665C65.2699 153.217 65.0727 153.69 64.7572 154.005ZM64.205 151.757C63.8895 151.402 63.298 151.245 62.4698 151.245H60.5767C59.9852 151.402 59.3936 151.876 59.3936 152.743C59.3936 153.098 59.5513 153.414 59.788 153.65C60.3007 154.124 61.2077 154.242 61.9176 154.242C62.6275 154.242 63.6529 154.163 64.205 153.611C64.4022 153.414 64.56 153.098 64.56 152.704C64.56 152.27 64.4417 151.994 64.205 151.757ZM61.7204 144.856C60.6162 144.856 59.7485 145.566 59.7485 146.709C59.7485 147.853 60.6162 148.563 61.7204 148.563C62.8247 148.563 63.7318 147.893 63.7318 146.709C63.7318 145.526 62.8247 144.856 61.7204 144.856Z" fill="black"/>
<path d="M66.9263 142.411V141.385H67.9517V142.411H66.9263ZM67.0446 151.6V144.422H67.7939V151.6H67.0446Z" fill="black"/>
<path d="M76.3125 148.169H70.8306C70.8306 148.997 71.1067 149.786 71.5799 150.338C71.9743 150.811 72.5264 151.087 73.3152 151.087C73.9462 151.087 74.4983 150.85 74.8927 150.456C75.1688 150.18 75.366 149.864 75.4449 149.431H76.1942C76.0759 150.062 75.7998 150.535 75.4054 150.929C74.8927 151.442 74.1828 151.757 73.3546 151.757C72.3293 151.757 71.5799 151.324 71.0672 150.732C70.4757 150.062 70.1602 149.076 70.1602 148.011C70.1602 147.104 70.3179 146.197 70.87 145.447C71.4616 144.619 72.2898 144.185 73.3152 144.185C75.2477 144.185 76.3914 145.842 76.3914 147.656C76.3125 147.853 76.3125 148.011 76.3125 148.169ZM73.2363 144.895C71.7377 144.895 70.8306 146.078 70.8306 147.498H75.6026C75.5632 146.157 74.6955 144.895 73.2363 144.895Z" fill="black"/>
<path d="M83.0958 150.929C82.5831 151.521 81.7155 151.797 80.769 151.797C79.7831 151.797 78.9549 151.481 78.4027 150.89C78.0083 150.417 77.8112 150.022 77.8112 149.431H78.5605C78.5999 149.864 78.7971 150.219 79.0732 150.535C79.507 150.929 80.0986 151.126 80.769 151.126C81.5183 151.126 82.1099 150.969 82.4648 150.614C82.7409 150.338 82.8592 150.101 82.8592 149.707C82.8592 149.076 82.386 148.524 81.5183 148.405L80.138 148.208C79.5464 148.129 78.9154 147.932 78.521 147.498C78.245 147.183 78.1267 146.828 78.1267 146.354C78.1267 145.763 78.3633 145.29 78.7577 144.974C79.2704 144.501 79.9802 144.304 80.7296 144.304C81.5972 144.304 82.4254 144.58 82.8987 145.132C83.2142 145.526 83.4113 145.999 83.4508 146.473H82.7409C82.7015 146.236 82.6226 145.881 82.386 145.605C82.0705 145.211 81.4789 144.974 80.7296 144.974C80.1774 144.974 79.7436 145.092 79.4281 145.29C79.0732 145.566 78.876 145.881 78.876 146.276C78.876 146.867 79.1915 147.34 80.2563 147.498L81.6366 147.695C82.9775 147.893 83.6085 148.8 83.6085 149.667C83.6085 150.14 83.4113 150.574 83.0958 150.929Z" fill="black"/>
<path d="M13.3695 111.097C11.9497 112.517 9.78061 113.069 7.53264 113.069C5.56074 113.069 3.50996 112.556 2.01132 111.176C0.907056 110.19 0.0788574 108.612 0.0788574 106.877H3.50996C3.50996 107.784 3.94378 108.612 4.45648 109.125C5.24524 109.914 6.50725 110.111 7.57208 110.111C8.83409 110.111 10.0567 109.835 10.7666 109.125C11.2004 108.691 11.5159 108.257 11.5159 107.35C11.5159 106.009 10.4905 105.378 9.30735 105.181C8.04533 104.945 6.42838 104.905 5.2058 104.668C2.64233 104.235 0.512675 102.578 0.512675 99.5021C0.512675 98.0429 1.18312 96.8203 2.12963 95.8738C3.35221 94.6906 5.40299 93.9019 7.53264 93.9019C9.50454 93.9019 11.437 94.5329 12.699 95.716C13.8033 96.7414 14.5526 98.1217 14.592 99.6598H11.1609C11.1215 98.9894 10.806 98.3189 10.3722 97.8457C9.78061 97.2147 8.55803 96.8597 7.57208 96.8597C6.54669 96.8597 5.32411 97.0964 4.57479 97.8851C4.18041 98.3189 3.94378 98.7528 3.94378 99.4626C3.94378 100.646 4.73254 101.277 5.83681 101.474C7.01995 101.671 8.6369 101.789 9.85948 101.947C12.6201 102.342 14.947 104.116 14.947 107.271C14.9075 108.967 14.2765 110.19 13.3695 111.097Z" fill="black"/>
<path d="M29.2235 106.995H20.1528C20.1133 108.021 20.5077 109.046 21.1387 109.638C21.612 110.071 22.243 110.466 23.15 110.466C24.0966 110.466 24.6487 110.269 25.1219 109.795C25.398 109.519 25.6346 109.125 25.7924 108.652H28.908C28.8291 109.44 28.277 110.545 27.7643 111.136C26.6206 112.477 24.9248 113.029 23.1895 113.029C21.3359 113.029 19.995 112.359 18.9302 111.373C17.5893 110.071 16.84 108.178 16.84 105.97C16.84 103.801 17.5104 101.868 18.8119 100.567C19.8373 99.5415 21.2965 98.8316 23.15 98.8316C25.1614 98.8316 26.9755 99.6204 28.1192 101.316C29.1052 102.815 29.3418 104.353 29.3024 106.049C29.2629 106.088 29.2235 106.719 29.2235 106.995ZM25.1614 102.263C24.7276 101.789 24.0571 101.474 23.1106 101.474C22.1247 101.474 21.2965 101.908 20.8626 102.499C20.3894 103.091 20.1922 103.722 20.1528 104.629H26.029C25.9501 103.604 25.6741 102.815 25.1614 102.263Z" fill="black"/>
<path d="M43.7367 106.995H34.6659C34.6265 108.021 35.0209 109.046 35.6519 109.638C36.1251 110.071 36.7562 110.466 37.6632 110.466C38.6097 110.466 39.1619 110.269 39.6351 109.795C39.9112 109.519 40.1478 109.125 40.3056 108.652H43.4212C43.3423 109.44 42.7902 110.545 42.2775 111.136C41.1338 112.477 39.4379 113.029 37.7027 113.029C35.8491 113.029 34.5082 112.359 33.4434 111.373C32.1025 110.071 31.3531 108.178 31.3531 105.97C31.3531 103.801 32.0236 101.868 33.325 100.567C34.3504 99.5415 35.8096 98.8316 37.6632 98.8316C39.6746 98.8316 41.4887 99.6204 42.6324 101.316C43.6184 102.815 43.855 104.353 43.8156 106.049C43.7761 106.088 43.7367 106.719 43.7367 106.995ZM39.6746 102.263C39.2407 101.789 38.5703 101.474 37.6238 101.474C36.6378 101.474 35.8096 101.908 35.3758 102.499C34.9026 103.091 34.7054 103.722 34.6659 104.629H40.5422C40.4633 103.604 40.1873 102.815 39.6746 102.263Z" fill="black"/>
<path d="M46.3396 106.207V103.288H55.292V106.207H46.3396Z" fill="black"/>
<path d="M16.7217 135.391V122.218L11.9103 135.154H9.46514L4.69315 122.061V135.391H1.45923V116.934H5.9946L10.8455 130.106L15.7358 116.934H20.0345V135.391H16.7217Z" fill="black"/>
<path d="M34.3111 133.616C33.3646 134.76 31.6293 135.746 29.5785 135.746C27.5277 135.746 25.7925 134.799 24.846 133.616C23.8206 132.354 23.2684 130.895 23.2684 128.607C23.2684 126.32 23.86 124.9 24.846 123.599C25.7925 122.455 27.5277 121.469 29.5785 121.469C31.6293 121.469 33.3646 122.416 34.3111 123.599C35.3365 124.861 35.8886 126.32 35.8886 128.607C35.928 130.895 35.3365 132.354 34.3111 133.616ZM31.6293 125.216C31.1955 124.742 30.4462 124.348 29.5785 124.348C28.7109 124.348 27.9616 124.742 27.5277 125.216C26.739 126.083 26.5812 127.345 26.5812 128.647C26.5812 129.909 26.7784 131.21 27.5277 132.078C27.9616 132.551 28.7109 132.946 29.5785 132.946C30.4462 132.946 31.1955 132.551 31.6293 132.078C32.418 131.21 32.5758 129.948 32.5758 128.647C32.6152 127.345 32.418 126.083 31.6293 125.216Z" fill="black"/>
<path d="M47.8382 135.391L47.641 133.892C46.8523 135.154 45.3142 135.706 43.855 135.706C42.5141 135.706 41.3704 135.233 40.5422 134.562C38.9252 133.222 38.1365 131.21 38.1365 128.647C38.1365 126.004 38.9252 123.914 40.5422 122.613C41.3704 121.942 42.4747 121.508 43.855 121.508C45.5903 121.508 46.8128 122.1 47.4044 122.77V116.579H50.6778V135.391H47.8382ZM44.4466 124.23C43.4212 124.23 42.7113 124.703 42.2775 125.295C41.607 126.162 41.4098 127.424 41.4098 128.568C41.4098 129.751 41.607 130.974 42.2775 131.881C42.7507 132.472 43.4606 132.946 44.4466 132.946C47.01 132.946 47.5227 130.54 47.5227 128.568C47.5227 126.635 47.01 124.23 44.4466 124.23Z" fill="black"/>
<path d="M66.1376 129.633H57.0668C57.0274 130.658 57.4218 131.683 58.0528 132.275C58.526 132.709 59.157 133.103 60.0641 133.103C61.0106 133.103 61.5628 132.906 62.036 132.433C62.3121 132.157 62.5487 131.762 62.7065 131.289H65.8221C65.7432 132.078 65.191 133.182 64.6784 133.774C63.5347 135.115 61.8388 135.667 60.1035 135.667C58.25 135.667 56.9091 134.996 55.8442 134.01C54.5034 132.709 53.754 130.816 53.754 128.607C53.754 126.438 54.4245 124.506 55.7259 123.204C56.7513 122.179 58.2105 121.469 60.0641 121.469C62.0754 121.469 63.8896 122.258 65.0333 123.954C66.0192 125.452 66.2559 126.99 66.2164 128.686C66.177 128.726 66.1376 129.357 66.1376 129.633ZM62.0754 124.9C61.6416 124.427 60.9712 124.111 60.0247 124.111C59.0387 124.111 58.2105 124.545 57.7767 125.137C57.3034 125.728 57.1063 126.359 57.0668 127.266H62.9431C62.9036 126.241 62.5881 125.452 62.0754 124.9Z" fill="black"/>
<path d="M81.7944 81.0846C85.9749 96.4259 100.015 107.666 116.658 107.666C134.72 107.666 149.667 94.4146 152.349 77.1013L126.478 70.2391L81.7944 81.0846Z" fill="#BDBCBC"/>
<path d="M106.561 106.246C95.3217 102.973 86.3692 94.4146 82.5437 83.4508L65.191 85.1861L64.2839 85.6594L79.8619 99.2655L80.9662 107.114L101.08 135.391H114.725L103.801 117.565L106.561 106.246Z" fill="#5C5C5B"/>
<path d="M126.478 70.2785L152.349 77.1408C152.231 77.8112 152.112 78.4817 151.994 79.1127L160 80.0197C160 67.4784 157.121 55.6076 151.955 44.9988L128.883 50.244L118.038 72.3293L126.478 70.2785Z" fill="#283583"/>
<path d="M151.955 44.9988C138.94 18.3387 111.61 0 79.9803 0L67.439 42.1592L68.1883 50.6778L99.6598 37.19L132.393 49.3764L151.955 44.9988Z" fill="#2FAC66"/>
</svg>
